<?xml version="1.0" encoding="UTF-8"?>
<svg width="27px" height="33px" viewBox="0 0 27 33" version="1.1" xmlns="http://www.w3.org/2000/svg" xmlns:xlink="http://www.w3.org/1999/xlink">
    <!-- Generator: Sketch 59 (86127) - https://sketch.com -->
    <title>shopping-bag copy</title>
    <desc>Created with Sketch.</desc>
    <g id="Shop.Pavin" stroke="none" stroke-width="1" fill="none" fill-rule="evenodd">
        <g id="Prodotti-4-Copy-8" transform="translate(-1171.000000, -33.000000)" fill="#250F02" fill-rule="nonzero">
            <g id="shopping-bag-copy" transform="translate(1170.974657, 32.994317)">
                <path d="M26.3556818,28.5477273 L24.4602273,7.18636364 C24.4261364,6.76363636 24.0715909,6.44318182 23.6420455,6.44318182 L19.6465909,6.44318182 C19.6397727,2.89090909 16.7488636,-2.84217094e-14 13.1965909,-2.84217094e-14 C9.64431818,-2.84217094e-14 6.75340909,2.89090909 6.74659091,6.44318182 L2.75113636,6.44318182 C2.32840909,6.44318182 1.97386364,6.76363636 1.93295455,7.18636364 L0.0375,28.5477273 C0.0375,28.575 0.0375,28.5954545 0.0375,28.6227273 C0.0375,31.0022727 2.22613636,32.9386364 4.9125,32.9386364 L21.4806818,32.9386364 C24.1670455,32.9386364 26.3556818,31.0022727 26.3556818,28.6227273 C26.3556818,28.5954545 26.3556818,28.575 26.3556818,28.5477273 Z M13.1965909,1.63636364 C15.8488636,1.63636364 18.0034091,3.79090909 18.0102273,6.44318182 L8.38295455,6.44318182 C8.38977273,3.79090909 10.5443182,1.63636364 13.1965909,1.63636364 Z M21.4806818,31.2954545 L4.9125,31.2954545 C3.13977273,31.2954545 1.69431818,30.1159091 1.67386364,28.65 L3.50113636,8.07954545 L6.74659091,8.07954545 L6.74659091,10.95 C6.74659091,11.4 7.11477273,11.7681818 7.56477273,11.7681818 C8.01477273,11.7681818 8.38295455,11.4 8.38295455,10.95 L8.38295455,8.07954545 L18.0102273,8.07954545 L18.0102273,10.95 C18.0102273,11.4 18.3784091,11.7681818 18.8284091,11.7681818 C19.2784091,11.7681818 19.6465909,11.4 19.6465909,10.95 L19.6465909,8.07954545 L22.8920455,8.07954545 L24.7193182,28.6568182 C24.6988636,30.1159091 23.2534091,31.2954545 21.4806818,31.2954545 Z" id="Shape"></path>
            </g>
        </g>
    </g>
</svg>